transcript
# //  Questa Sim
# //  Version 10.3 linux Jan  6 2014
# //
# //  Copyright 1991-2014 Mentor Graphics Corporation
# //  All Rights Reserved.
# //
# //  THIS WORK CONTAINS TRADE SECRET AND PROPRIETARY INFORMATION
# //  WHICH IS THE PROPERTY OF MENTOR GRAPHICS CORPORATION OR ITS
# //  LICENSORS AND IS SUBJECT TO LICENSE TERMS.
# //
# reading modelsim.ini
# Loading project lab01
# Compile of ALU.vp was successful.
# Compile of Arith_ALU.vp was successful.
# Compile of data_defs.v was successful.
# Compile of Ex_Preproc.vp was successful.
# Compile of Execute.if.sv was successful.
# Compile of Execute.tb.sv was successful.
# Compile of Execute.test_top.sv was successful.
# Compile of Shift_ALU.vp was successful.
# Compile of Top.v was successful.
# 9 compiles, 0 failed with no errors. 
vsim -novopt work.Execute_test_top
# vsim -novopt work.Execute_test_top 
# Start time: 20:48:18 on Sep 23,2017
# ** Warning: (vsim-8891) All optimizations are turned off because the -novopt switch is in effect. This will cause your simulation to run very slowly. If you are using this switch to preserve visibility for Debug or PLI features please see the User's Manual section on Preserving Object Visibility with vopt.
# Refreshing /qixin/proj_users/twxiu/svvlab/Lab1/Code/work.Execute_test_top
# Loading sv_std.std
# Loading work.Execute_test_top
# Refreshing /qixin/proj_users/twxiu/svvlab/Lab1/Code/work.Execute_io
# Loading work.Execute_io
# Refreshing /qixin/proj_users/twxiu/svvlab/Lab1/Code/work.Execute_test
# Loading work.Execute_test
# Refreshing /qixin/proj_users/twxiu/svvlab/Lab1/Code/work.Top
# Loading work.Top
# Refreshing /qixin/proj_users/twxiu/svvlab/Lab1/Code/work.Ex_Preproc
# Loading work.Ex_Preproc
# Refreshing /qixin/proj_users/twxiu/svvlab/Lab1/Code/work.ALU
# Loading work.ALU
# Refreshing /qixin/proj_users/twxiu/svvlab/Lab1/Code/work.Arith_ALU
# Loading work.Arith_ALU
# Refreshing /qixin/proj_users/twxiu/svvlab/Lab1/Code/work.Shift_ALU
# Loading work.Shift_ALU
run -all
#                    0RESET BEGIN
#                   45RESET END
#                   45Sending Another Packet
#                   45		Created Payload Packet
#                   45		Created Payload Packet
#                   45		Created Payload Packet
#                   45		Created Payload Packet
#                   45		Created Payload Packet
#                   45		Created Payload Packet
#                   45		Created Payload Packet
#                   45		Created Payload Packet
#                   45		Created Payload Packet
#                   55ns:  Inputs to ALU: src1 = 12153524, src2 = c0895e81, imm = 8484d609,  mem_data_read_in = baadd00d,  control_in = 0011000
#                   55ns:  OUTPUTS from ALU: aluout = 00000000, carry = 0, mem_write_en = 1, mem_data_write_out = c0895e81
#                   65ns:  Inputs to ALU: src1 = b1f05663, src2 = 06b97b0d, imm = 46df998d,  mem_data_read_in = baadd00d,  control_in = 0011000
#                   65ns:  OUTPUTS from ALU: aluout = 00000000, carry = 0, mem_write_en = 1, mem_data_write_out = 06b97b0d
#                   75ns:  Inputs to ALU: src1 = b2c28465, src2 = 89375212, imm = 00f3e301,  mem_data_read_in = baadd00d,  control_in = 0100000
#                   75ns:  OUTPUTS from ALU: aluout = 24000000, carry = 0, mem_write_en = 1, mem_data_write_out = 89375212
#                   85ns:  Inputs to ALU: src1 = 06d7cd0d, src2 = 3b23f176, imm = 1e8dcd3d,  mem_data_read_in = baadd00d,  control_in = 0001001
#                   85ns:  OUTPUTS from ALU: aluout = 0acc6000, carry = 0, mem_write_en = 1, mem_data_write_out = 3b23f176
#                   95ns:  Inputs to ALU: src1 = 76d457ed, src2 = 462df78c, imm = 7cfde9f9,  mem_data_read_in = baadd00d,  control_in = 0101001
#                   95ns:  OUTPUTS from ALU: aluout = 000b2c28, carry = 0, mem_write_en = 1, mem_data_write_out = 462df78c
#                  105ns:  Inputs to ALU: src1 = e33724c6, src2 = e2f784c5, imm = d513d2aa,  mem_data_read_in = baadd00d,  control_in = 1011001
#                  105ns:  OUTPUTS from ALU: aluout = 25659a4a, carry = 0, mem_write_en = 1, mem_data_write_out = e2f784c5
#                  115ns:  Inputs to ALU: src1 = 72aff7e5, src2 = bbd27277, imm = 8932d612,  mem_data_read_in = baadd00d,  control_in = 0101101
#                  115ns:  OUTPUTS from ALU: aluout = f9d66df4, carry = 1, mem_write_en = 1, mem_data_write_out = bbd27277
#                  125ns:  Inputs to ALU: src1 = 47ecdb8f, src2 = 793069f2, imm = e77696ce,  mem_data_read_in = baadd00d,  control_in = 0111101
#                  125ns:  OUTPUTS from ALU: aluout = f737f6ee, carry = 0, mem_write_en = 1, mem_data_write_out = 793069f2
#                  135ns:  Inputs to ALU: src1 = f4007ae8, src2 = e2ca4ec5, imm = 2e58495c,  mem_data_read_in = baadd00d,  control_in = 0011101
#                  135ns:  OUTPUTS from ALU: aluout = baadd00d, carry = 0, mem_write_en = 1, mem_data_write_out = e2ca4ec5
#                  135Sending Another Packet
#                  135		Created Payload Packet
#                  135		Created Payload Packet
#                  135		Created Payload Packet
#                  135		Created Payload Packet
#                  135		Created Payload Packet
#                  135		Created Payload Packet
#                  135		Created Payload Packet
#                  135		Created Payload Packet
#                  135		Created Payload Packet
#                  135		Created Payload Packet
#                  135		Created Payload Packet
#                  145ns:  Inputs to ALU: src1 = a9a7d653, src2 = 359fdd6b, imm = eaa62ad5,  mem_data_read_in = baadd00d,  control_in = 0100000
#                  145ns:  OUTPUTS from ALU: aluout = baadd00d, carry = 0, mem_write_en = 1, mem_data_write_out = 359fdd6b
#                  155ns:  Inputs to ALU: src1 = 81174a02, src2 = d7563eae, imm = 0effe91d,  mem_data_read_in = baadd00d,  control_in = 0111000
#                  155ns:  OUTPUTS from ALU: aluout = ffffd00d, carry = 0, mem_write_en = 1, mem_data_write_out = d7563eae
#                  165ns:  Inputs to ALU: src1 = e7c572cf, src2 = 11844923, imm = 0509650a,  mem_data_read_in = baadd00d,  control_in = 0001000
#                  165ns:  OUTPUTS from ALU: aluout = 001534fa, carry = 0, mem_write_en = 1, mem_data_write_out = 11844923
#                  175ns:  Inputs to ALU: src1 = e5730aca, src2 = 9e314c3c, imm = 7968bdf2,  mem_data_read_in = baadd00d,  control_in = 1111001
#                  175ns:  OUTPUTS from ALU: aluout = 0002045d, carry = 0, mem_write_en = 1, mem_data_write_out = 9e314c3c
#                  185ns:  Inputs to ALU: src1 = 452e618a, src2 = 20c4b341, imm = ec4b34d8,  mem_data_read_in = baadd00d,  control_in = 1001001
#                  185ns:  OUTPUTS from ALU: aluout = 2cf00000, carry = 0, mem_write_en = 1, mem_data_write_out = 20c4b341
#                  195ns:  Inputs to ALU: src1 = 3c20f378, src2 = c48a1289, imm = 75c50deb,  mem_data_read_in = baadd00d,  control_in = 0111001
#                  195ns:  OUTPUTS from ALU: aluout = bdf20000, carry = 0, mem_write_en = 1, mem_data_write_out = c48a1289
#                  205ns:  Inputs to ALU: src1 = 5b0265b6, src2 = 634bf9c6, imm = 571513ae,  mem_data_read_in = baadd00d,  control_in = 0011101
#                  205ns:  OUTPUTS from ALU: aluout = 440a2088, carry = 0, mem_write_en = 1, mem_data_write_out = 634bf9c6
#                  215ns:  Inputs to ALU: src1 = de7502bc, src2 = 150fdd2a, imm = 85d79a0b,  mem_data_read_in = baadd00d,  control_in = 0011101
#                  215ns:  OUTPUTS from ALU: aluout = 8a3af214, carry = 0, mem_write_en = 1, mem_data_write_out = 150fdd2a
#                  225ns:  Inputs to ALU: src1 = b897be71, src2 = 42f24185, imm = 27f2554f,  mem_data_read_in = baadd00d,  control_in = 0001101
#                  225ns:  OUTPUTS from ALU: aluout = ffffd00d, carry = 0, mem_write_en = 1, mem_data_write_out = 42f24185
#                  235ns:  Inputs to ALU: src1 = 9dcc603b, src2 = 1d06333a, imm = bf23327e,  mem_data_read_in = baadd00d,  control_in = 1110001
#                  235ns:  OUTPUTS from ALU: aluout = ffffd00d, carry = 0, mem_write_en = 1, mem_data_write_out = 1d06333a
#                  245ns:  Inputs to ALU: src1 = 0aaa4b15, src2 = 78d99bf1, imm = 6c9c4bd9,  mem_data_read_in = baadd00d,  control_in = 0010001
#                  245ns:  OUTPUTS from ALU: aluout = 0000000d, carry = 0, mem_write_en = 1, mem_data_write_out = 78d99bf1
#                  245Sending Another Packet
#                  245		Created Payload Packet
#                  245		Created Payload Packet
#                  245		Created Payload Packet
#                  245		Created Payload Packet
#                  245		Created Payload Packet
#                  245		Created Payload Packet
#                  245		Created Payload Packet
#                  245		Created Payload Packet
#                  245		Created Payload Packet
#                  245		Created Payload Packet
#                  245		Created Payload Packet
#                  255ns:  Inputs to ALU: src1 = 4b212f96, src2 = 061d7f0c, imm = e12ccec2,  mem_data_read_in = baadd00d,  control_in = 0101000
#                  255ns:  OUTPUTS from ALU: aluout = 333a0000, carry = 0, mem_write_en = 1, mem_data_write_out = 061d7f0c
#                  265ns:  Inputs to ALU: src1 = 6457edc8, src2 = bb825a77, imm = 1ef2ed3d,  mem_data_read_in = baadd00d,  control_in = 0010000
#                  265ns:  OUTPUTS from ALU: aluout = ffffe706, carry = 1, mem_write_en = 1, mem_data_write_out = bb825a77
#                  275ns:  Inputs to ALU: src1 = 090cdb12, src2 = bf05007e, imm = 36e5816d,  mem_data_read_in = baadd00d,  control_in = 0011000
#                  275ns:  OUTPUTS from ALU: aluout = 00000009, carry = 1, mem_write_en = 1, mem_data_write_out = bf05007e
#                  285ns:  Inputs to ALU: src1 = 1cd9e739, src2 = 0fd28f1f, imm = e9ebf6d3,  mem_data_read_in = baadd00d,  control_in = 1111001
#                  285ns:  OUTPUTS from ALU: aluout = e4000000, carry = 1, mem_write_en = 1, mem_data_write_out = 0fd28f1f
#                  295ns:  Inputs to ALU: src1 = 42d92f85, src2 = bc148878, imm = 2dda595b,  mem_data_read_in = baadd00d,  control_in = 0011001
#                  295ns:  OUTPUTS from ALU: aluout = 80000000, carry = 1, mem_write_en = 1, mem_data_write_out = bc148878
#                  305ns:  Inputs to ALU: src1 = 248b4b49, src2 = 9ff2ae3f, imm = 150caf2a,  mem_data_read_in = baadd00d,  control_in = 1001001
#                  305ns:  OUTPUTS from ALU: aluout = f6d30000, carry = 0, mem_write_en = 1, mem_data_write_out = 9ff2ae3f
#                  315ns:  Inputs to ALU: src1 = 2c156358, src2 = c33f3886, imm = c71a0c8e,  mem_data_read_in = baadd00d,  control_in = 0001101
#                  315ns:  OUTPUTS from ALU: aluout = ffff88e0, carry = 1, mem_write_en = 1, mem_data_write_out = c33f3886
#                  325ns:  Inputs to ALU: src1 = ce2ff29c, src2 = 7d3599fa, imm = 937dbc26,  mem_data_read_in = baadd00d,  control_in = 0101101
#                  325ns:  OUTPUTS from ALU: aluout = 04080b08, carry = 0, mem_write_en = 1, mem_data_write_out = 7d3599fa
#                  335ns:  Inputs to ALU: src1 = 39961773, src2 = d18bb4a3, imm = 9799a82f,  mem_data_read_in = baadd00d,  control_in = 0111101
#                  335ns:  OUTPUTS from ALU: aluout = 0000000d, carry = 0, mem_write_en = 1, mem_data_write_out = d18bb4a3
#                  345ns:  Inputs to ALU: src1 = d9d292b3, src2 = afd8565f, imm = 22290d44,  mem_data_read_in = baadd00d,  control_in = 1100001
#                  345ns:  OUTPUTS from ALU: aluout = baadd00d, carry = 0, mem_write_en = 1, mem_data_write_out = afd8565f
#                  355ns:  Inputs to ALU: src1 = 7bf8fdf7, src2 = e59b36cb, imm = f3091ae6,  mem_data_read_in = baadd00d,  control_in = 1000001
#                  355ns:  OUTPUTS from ALU: aluout = baadd00d, carry = 0, mem_write_en = 1, mem_data_write_out = e59b36cb
#                  355Sending Another Packet
#                  355		Created Payload Packet
#                  355		Created Payload Packet
#                  355		Created Payload Packet
#                  355		Created Payload Packet
#                  355		Created Payload Packet
#                  355		Created Payload Packet
#                  355		Created Payload Packet
#                  355		Created Payload Packet
#                  355		Created Payload Packet
#                  355		Created Payload Packet
#                  355		Created Payload Packet
#                  365ns:  Inputs to ALU: src1 = cd5ebc9a, src2 = fedf72fd, imm = e1f102c3,  mem_data_read_in = baadd00d,  control_in = 0000000
#                  365ns:  OUTPUTS from ALU: aluout = 760ac4ec, carry = 0, mem_write_en = 1, mem_data_write_out = fedf72fd
#                  375ns:  Inputs to ALU: src1 = 2b0eed56, src2 = 2779e94e, imm = b3d97667,  mem_data_read_in = baadd00d,  control_in = 0011000
#                  375ns:  OUTPUTS from ALU: aluout = 619834c3, carry = 0, mem_write_en = 1, mem_data_write_out = 2779e94e
#                  385ns:  Inputs to ALU: src1 = 8531340a, src2 = 5b6fb9b6, imm = 9c0e8a38,  mem_data_read_in = baadd00d,  control_in = 0000000
#                  385ns:  OUTPUTS from ALU: aluout = f5e4d000, carry = 0, mem_write_en = 1, mem_data_write_out = 5b6fb9b6
#                  395ns:  Inputs to ALU: src1 = 3cd18779, src2 = dc2bc4b8, imm = 4a74bf94,  mem_data_read_in = baadd00d,  control_in = 0101001
#                  395ns:  OUTPUTS from ALU: aluout = bb558000, carry = 0, mem_write_en = 1, mem_data_write_out = dc2bc4b8
#                  405ns:  Inputs to ALU: src1 = 49c65d93, src2 = 823f2c04, imm = acb7ca59,  mem_data_read_in = baadd00d,  control_in = 1011001
#                  405ns:  OUTPUTS from ALU: aluout = 31340a00, carry = 0, mem_write_en = 1, mem_data_write_out = 823f2c04
#                  415ns:  Inputs to ALU: src1 = 6dcb69db, src2 = a6fcde4d, imm = 6cb0b7d9,  mem_data_read_in = baadd00d,  control_in = 1101001
#                  415ns:  OUTPUTS from ALU: aluout = f25cc7e5, carry = 1, mem_write_en = 1, mem_data_write_out = a6fcde4d
#                  425ns:  Inputs to ALU: src1 = b6a4266d, src2 = bb45e276, imm = 653b49ca,  mem_data_read_in = baadd00d,  control_in = 0001101
#                  425ns:  OUTPUTS from ALU: aluout = edf7dfdb, carry = 0, mem_write_en = 1, mem_data_write_out = bb45e276
#                  435ns:  Inputs to ALU: src1 = 5b172db6, src2 = 4a937195, imm = a3071a46,  mem_data_read_in = baadd00d,  control_in = 0111101
#                  435ns:  OUTPUTS from ALU: aluout = 017bde02, carry = 0, mem_write_en = 1, mem_data_write_out = 4a937195
#                  445ns:  Inputs to ALU: src1 = 02749b04, src2 = 7bd261f7, imm = 34980769,  mem_data_read_in = baadd00d,  control_in = 0101101
#                  445ns:  OUTPUTS from ALU: aluout = 0000000d, carry = 0, mem_write_en = 1, mem_data_write_out = 7bd261f7
#                  455ns:  Inputs to ALU: src1 = da6ebab4, src2 = 44018d88, imm = 147cd928,  mem_data_read_in = baadd00d,  control_in = 1100001
#                  455ns:  OUTPUTS from ALU: aluout = baadd00d, carry = 0, mem_write_en = 1, mem_data_write_out = 44018d88
#                  465ns:  Inputs to ALU: src1 = 9690042d, src2 = e3c530c7, imm = 975c9c2e,  mem_data_read_in = baadd00d,  control_in = 0100001
#                  465ns:  OUTPUTS from ALU: aluout = baadd00d, carry = 0, mem_write_en = 1, mem_data_write_out = e3c530c7
#                  465Sending Another Packet
#                  465		Created Payload Packet
#                  465		Created Payload Packet
#                  465		Created Payload Packet
#                  465		Created Payload Packet
#                  465		Created Payload Packet
#                  465		Created Payload Packet
#                  465		Created Payload Packet
#                  465		Created Payload Packet
#                  465		Created Payload Packet
#                  465		Created Payload Packet
#                  465		Created Payload Packet
#                  475ns:  Inputs to ALU: src1 = 6a8e05d5, src2 = 8d24f61a, imm = dcf000b9,  mem_data_read_in = baadd00d,  control_in = 0001000
#                  475ns:  OUTPUTS from ALU: aluout = 9e6f373c, carry = 0, mem_write_en = 1, mem_data_write_out = 8d24f61a
#                  485ns:  Inputs to ALU: src1 = 1b876137, src2 = 4b273796, imm = 603921c0,  mem_data_read_in = baadd00d,  control_in = 0010000
#                  485ns:  OUTPUTS from ALU: aluout = b2cad366, carry = 1, mem_write_en = 1, mem_data_write_out = 4b273796
#                  495ns:  Inputs to ALU: src1 = 13259f26, src2 = db461ab6, imm = 3e99837d,  mem_data_read_in = baadd00d,  control_in = 0101000
#                  495ns:  OUTPUTS from ALU: aluout = aa381754, carry = 1, mem_write_en = 1, mem_data_write_out = db461ab6
#                  505ns:  Inputs to ALU: src1 = 6e5f0fdc, src2 = 43615786, imm = 3c03ff78,  mem_data_read_in = baadd00d,  control_in = 0101001
#                  505ns:  OUTPUTS from ALU: aluout = c3b09b80, carry = 1, mem_write_en = 1, mem_data_write_out = 43615786
#                  515ns:  Inputs to ALU: src1 = 3f5a9b7e, src2 = ed8d80db, imm = e7c3b6cf,  mem_data_read_in = baadd00d,  control_in = 0101001
#                  515ns:  OUTPUTS from ALU: aluout = 0000004c, carry = 1, mem_write_en = 1, mem_data_write_out = ed8d80db
#                  525ns:  Inputs to ALU: src1 = 3ced2b79, src2 = fd28e4fa, imm = b0bcee61,  mem_data_read_in = baadd00d,  control_in = 1011001
#                  525ns:  OUTPUTS from ALU: aluout = 325b1064, carry = 0, mem_write_en = 1, mem_data_write_out = fd28e4fa
#                  535ns:  Inputs to ALU: src1 = 0b940917, src2 = d0f578a1, imm = 43779186,  mem_data_read_in = baadd00d,  control_in = 0101101
#                  535ns:  OUTPUTS from ALU: aluout = 5796e4af, carry = 1, mem_write_en = 1, mem_data_write_out = d0f578a1
#                  545ns:  Inputs to ALU: src1 = a8639650, src2 = 7a8c59f5, imm = 9ab48835,  mem_data_read_in = baadd00d,  control_in = 0001101
#                  545ns:  OUTPUTS from ALU: aluout = bcfdef79, carry = 0, mem_write_en = 1, mem_data_write_out = 7a8c59f5
#                  555ns:  Inputs to ALU: src1 = 949a8a29, src2 = 60b175c1, imm = e2e574c5,  mem_data_read_in = baadd00d,  control_in = 0011101
#                  555ns:  OUTPUTS from ALU: aluout = baadd00d, carry = 0, mem_write_en = 1, mem_data_write_out = 60b175c1
#                  565ns:  Inputs to ALU: src1 = cc01b498, src2 = 25b27b4b, imm = b98c4273,  mem_data_read_in = baadd00d,  control_in = 0000001
#                  565ns:  OUTPUTS from ALU: aluout = 0000000d, carry = 0, mem_write_en = 1, mem_data_write_out = 25b27b4b
#                  575ns:  Inputs to ALU: src1 = f622e6ec, src2 = c550168a, imm = 2758d14e,  mem_data_read_in = baadd00d,  control_in = 0100001
#                  575ns:  OUTPUTS from ALU: aluout = ffffd00d, carry = 0, mem_write_en = 1, mem_data_write_out = c550168a
#                  575Sending Another Packet
#                  575		Created Payload Packet
#                  575		Created Payload Packet
#                  575		Created Payload Packet
#                  575		Created Payload Packet
#                  575		Created Payload Packet
#                  575		Created Payload Packet
#                  575		Created Payload Packet
#                  575		Created Payload Packet
#                  575		Created Payload Packet
#                  575		Created Payload Packet
#                  575		Created Payload Packet
#                  585ns:  Inputs to ALU: src1 = 09ff4113, src2 = 35a0c96b, imm = e3b7aec7,  mem_data_read_in = baadd00d,  control_in = 0001000
#                  585ns:  OUTPUTS from ALU: aluout = f1b42fe3, carry = 0, mem_write_en = 1, mem_data_write_out = 35a0c96b
#                  595ns:  Inputs to ALU: src1 = 5b0bddb6, src2 = 5d059dba, imm = 6216abc4,  mem_data_read_in = baadd00d,  control_in = 0110000
#                  595ns:  OUTPUTS from ALU: aluout = 30d2d062, carry = 0, mem_write_en = 1, mem_data_write_out = 5d059dba
#                  605ns:  Inputs to ALU: src1 = 5c8295b9, src2 = 492fd392, imm = da269ab4,  mem_data_read_in = baadd00d,  control_in = 0101000
#                  605ns:  OUTPUTS from ALU: aluout = fa089800, carry = 0, mem_write_en = 1, mem_data_write_out = 492fd392
#                  615ns:  Inputs to ALU: src1 = 3fbb3b7f, src2 = c3339086, imm = 7d6df5fa,  mem_data_read_in = baadd00d,  control_in = 1001001
#                  615ns:  OUTPUTS from ALU: aluout = 00000016, carry = 0, mem_write_en = 1, mem_data_write_out = c3339086
#                  625ns:  Inputs to ALU: src1 = f92794f2, src2 = 19452132, imm = dece5ebd,  mem_data_read_in = baadd00d,  control_in = 0001001
#                  625ns:  OUTPUTS from ALU: aluout = 00001720, carry = 0, mem_write_en = 1, mem_data_write_out = 19452132
#                  635ns:  Inputs to ALU: src1 = 424fcd84, src2 = f249a4e4, imm = 6543cfca,  mem_data_read_in = baadd00d,  control_in = 0011001
#                  635ns:  OUTPUTS from ALU: aluout = 3d29317a, carry = 0, mem_write_en = 1, mem_data_write_out = f249a4e4
#                  645ns:  Inputs to ALU: src1 = 54a879a9, src2 = d095a8a1, imm = 4765a98e,  mem_data_read_in = baadd00d,  control_in = 0101101
#                  645ns:  OUTPUTS from ALU: aluout = d7f5f3af, carry = 1, mem_write_en = 1, mem_data_write_out = d095a8a1
#                  655ns:  Inputs to ALU: src1 = fd8b6afb, src2 = 85e51e0b, imm = f78290ef,  mem_data_read_in = baadd00d,  control_in = 0011101
#                  655ns:  OUTPUTS from ALU: aluout = ffff9d4e, carry = 1, mem_write_en = 1, mem_data_write_out = 85e51e0b
#                  665ns:  Inputs to ALU: src1 = 64c83dc9, src2 = 1b60e536, imm = bab14875,  mem_data_read_in = baadd00d,  control_in = 0111101
#                  665ns:  OUTPUTS from ALU: aluout = baadd00d, carry = 0, mem_write_en = 1, mem_data_write_out = 1b60e536
#                  675ns:  Inputs to ALU: src1 = c7e8568f, src2 = 35cdbf6b, imm = 4465e788,  mem_data_read_in = baadd00d,  control_in = 0000001
#                  675ns:  OUTPUTS from ALU: aluout = ffffd00d, carry = 0, mem_write_en = 1, mem_data_write_out = 35cdbf6b
#                  685ns:  Inputs to ALU: src1 = d73fb4ae, src2 = 4df3819b, imm = 493e4592,  mem_data_read_in = baadd00d,  control_in = 0110001
#                  685ns:  OUTPUTS from ALU: aluout = baadd00d, carry = 0, mem_write_en = 1, mem_data_write_out = 4df3819b
#                  685Sending Another Packet
#                  685		Created Payload Packet
#                  685		Created Payload Packet
#                  685		Created Payload Packet
#                  685		Created Payload Packet
#                  685		Created Payload Packet
#                  685		Created Payload Packet
#                  685		Created Payload Packet
#                  685		Created Payload Packet
#                  685		Created Payload Packet
#                  685		Created Payload Packet
#                  685		Created Payload Packet
#                  695ns:  Inputs to ALU: src1 = ab196256, src2 = adac225b, imm = f166fae2,  mem_data_read_in = baadd00d,  control_in = 0011000
#                  695ns:  OUTPUTS from ALU: aluout = fdb615fa, carry = 0, mem_write_en = 1, mem_data_write_out = adac225b
#                  705ns:  Inputs to ALU: src1 = 8273e204, src2 = 39ac0373, imm = ec50b4d8,  mem_data_read_in = baadd00d,  control_in = 0111000
#                  705ns:  OUTPUTS from ALU: aluout = b20c7e64, carry = 0, mem_write_en = 1, mem_data_write_out = 39ac0373
#                  715ns:  Inputs to ALU: src1 = 093e4d12, src2 = dc0344b8, imm = 9c811239,  mem_data_read_in = baadd00d,  control_in = 0011000
#                  715ns:  OUTPUTS from ALU: aluout = cb12b000, carry = 0, mem_write_en = 1, mem_data_write_out = dc0344b8
#                  725ns:  Inputs to ALU: src1 = f287b6e5, src2 = d0c5dca1, imm = 15890f2b,  mem_data_read_in = baadd00d,  control_in = 0101001
#                  725ns:  OUTPUTS from ALU: aluout = 0000104e, carry = 0, mem_write_en = 1, mem_data_write_out = d0c5dca1
#                  735ns:  Inputs to ALU: src1 = 40905d81, src2 = 641b85c8, imm = 13b55527,  mem_data_read_in = baadd00d,  control_in = 0101001
#                  735ns:  OUTPUTS from ALU: aluout = 3e4d1200, carry = 0, mem_write_en = 1, mem_data_write_out = 641b85c8
#                  745ns:  Inputs to ALU: src1 = 50d5f9a1, src2 = 8f8c6e1f, imm = 82223a04,  mem_data_read_in = baadd00d,  control_in = 1011001
#                  745ns:  OUTPUTS from ALU: aluout = dcfea7ba, carry = 0, mem_write_en = 1, mem_data_write_out = 8f8c6e1f
#                  755ns:  Inputs to ALU: src1 = 2c2d2358, src2 = cb5c8096, imm = 0a6e9314,  mem_data_read_in = baadd00d,  control_in = 0111101
#                  755ns:  OUTPUTS from ALU: aluout = 2cdb085a, carry = 0, mem_write_en = 1, mem_data_write_out = cb5c8096
#                  765ns:  Inputs to ALU: src1 = 8919b412, src2 = cb227096, imm = d8ace2b1,  mem_data_read_in = baadd00d,  control_in = 0001101
#                  765ns:  OUTPUTS from ALU: aluout = d2f7fba5, carry = 0, mem_write_en = 1, mem_data_write_out = cb227096
#                  775ns:  Inputs to ALU: src1 = 2ac2d555, src2 = f6c38eed, imm = 158b2b2b,  mem_data_read_in = baadd00d,  control_in = 0101101
#                  775ns:  OUTPUTS from ALU: aluout = baadd00d, carry = 0, mem_write_en = 1, mem_data_write_out = f6c38eed
#                  785ns:  Inputs to ALU: src1 = 7ab11bf5, src2 = 56b403ad, imm = 93c12227,  mem_data_read_in = baadd00d,  control_in = 1100001
#                  785ns:  OUTPUTS from ALU: aluout = 0000000d, carry = 0, mem_write_en = 1, mem_data_write_out = 56b403ad
#                  795ns:  Inputs to ALU: src1 = 4249ff84, src2 = d3a8e4a7, imm = f3d7a6e7,  mem_data_read_in = baadd00d,  control_in = 0000001
#                  795ns:  OUTPUTS from ALU: aluout = baadd00d, carry = 0, mem_write_en = 1, mem_data_write_out = d3a8e4a7
#                  795Sending Another Packet
#                  795		Created Payload Packet
#                  795		Created Payload Packet
#                  795		Created Payload Packet
#                  795		Created Payload Packet
#                  795		Created Payload Packet
#                  795		Created Payload Packet
#                  795		Created Payload Packet
#                  795		Created Payload Packet
#                  795		Created Payload Packet
#                  795		Created Payload Packet
#                  795		Created Payload Packet
#                  805ns:  Inputs to ALU: src1 = b7dfaa6f, src2 = 43460d86, imm = 782321f0,  mem_data_read_in = baadd00d,  control_in = 0001000
#                  805ns:  OUTPUTS from ALU: aluout = 2c051858, carry = 0, mem_write_en = 1, mem_data_write_out = 43460d86
#                  815ns:  Inputs to ALU: src1 = 1c719738, src2 = 20769140, imm = 94097628,  mem_data_read_in = baadd00d,  control_in = 0000000
#                  815ns:  OUTPUTS from ALU: aluout = 15f2e42b, carry = 1, mem_write_en = 1, mem_data_write_out = 20769140
#                  825ns:  Inputs to ALU: src1 = 7b0da9f6, src2 = e2bf1ac5, imm = 602831c0,  mem_data_read_in = baadd00d,  control_in = 0100000
#                  825ns:  OUTPUTS from ALU: aluout = efd53780, carry = 1, mem_write_en = 1, mem_data_write_out = e2bf1ac5
#                  835ns:  Inputs to ALU: src1 = 3a625f74, src2 = 1cde7139, imm = d86a6ab0,  mem_data_read_in = baadd00d,  control_in = 1011001
#                  835ns:  OUTPUTS from ALU: aluout = 38000000, carry = 1, mem_write_en = 1, mem_data_write_out = 1cde7139
#                  845ns:  Inputs to ALU: src1 = 1e1c873c, src2 = 1521932a, imm = 3124d362,  mem_data_read_in = baadd00d,  control_in = 1011001
#                  845ns:  OUTPUTS from ALU: aluout = 00f61b53, carry = 1, mem_write_en = 1, mem_data_write_out = 1521932a
#                  855ns:  Inputs to ALU: src1 = 0aec3515, src2 = f0b14ee1, imm = 0be29d17,  mem_data_read_in = baadd00d,  control_in = 0111001
#                  855ns:  OUTPUTS from ALU: aluout = fa6a7ff4, carry = 0, mem_write_en = 1, mem_data_write_out = f0b14ee1
#                  865ns:  Inputs to ALU: src1 = a18bee43, src2 = 64b5e3c9, imm = c3360486,  mem_data_read_in = baadd00d,  control_in = 0011101
#                  865ns:  OUTPUTS from ALU: aluout = 3f3cd77e, carry = 0, mem_write_en = 1, mem_data_write_out = 64b5e3c9
#                  875ns:  Inputs to ALU: src1 = 1297cb25, src2 = 60f69dc1, imm = c69da28d,  mem_data_read_in = baadd00d,  control_in = 0101101
#                  875ns:  OUTPUTS from ALU: aluout = f41d62e8, carry = 0, mem_write_en = 1, mem_data_write_out = 60f69dc1
#                  885ns:  Inputs to ALU: src1 = ad67e25a, src2 = 03d62707, imm = 165b7b2c,  mem_data_read_in = baadd00d,  control_in = 0011101
#                  885ns:  OUTPUTS from ALU: aluout = ffffd00d, carry = 0, mem_write_en = 1, mem_data_write_out = 03d62707
#                  895ns:  Inputs to ALU: src1 = 060a5d0c, src2 = b8ade671, imm = 9de17c3b,  mem_data_read_in = baadd00d,  control_in = 0110001
#                  895ns:  OUTPUTS from ALU: aluout = baadd00d, carry = 0, mem_write_en = 1, mem_data_write_out = b8ade671
#                  905ns:  Inputs to ALU: src1 = 5b60e5b6, src2 = fbdfc2f7, imm = cf14ce9e,  mem_data_read_in = baadd00d,  control_in = 1110001
#                  905ns:  OUTPUTS from ALU: aluout = ffffd00d, carry = 0, mem_write_en = 1, mem_data_write_out = fbdfc2f7
#                  905Sending Another Packet
#                  905		Created Payload Packet
#                  905		Created Payload Packet
#                  905		Created Payload Packet
#                  905		Created Payload Packet
#                  905		Created Payload Packet
#                  905		Created Payload Packet
#                  905		Created Payload Packet
#                  905		Created Payload Packet
#                  905		Created Payload Packet
#                  905		Created Payload Packet
#                  905		Created Payload Packet
#                  905		Created Payload Packet
#                  915ns:  Inputs to ALU: src1 = 81c39a03, src2 = 71c129e3, imm = 0e92431d,  mem_data_read_in = baadd00d,  control_in = 0000000
#                  915ns:  OUTPUTS from ALU: aluout = 4752198e, carry = 0, mem_write_en = 1, mem_data_write_out = 71c129e3
#                  925ns:  Inputs to ALU: src1 = 58f93db1, src2 = 22119f44, imm = ca9cbc95,  mem_data_read_in = baadd00d,  control_in = 0000000
#                  925ns:  OUTPUTS from ALU: aluout = c2f70000, carry = 0, mem_write_en = 1, mem_data_write_out = 22119f44
#                  935ns:  Inputs to ALU: src1 = f01d34e0, src2 = f6a178ed, imm = 297a1552,  mem_data_read_in = baadd00d,  control_in = 0110000
#                  935ns:  OUTPUTS from ALU: aluout = 0e1cd018, carry = 0, mem_write_en = 1, mem_data_write_out = f6a178ed
#                  945ns:  Inputs to ALU: src1 = 7c1e5bf8, src2 = 46dcb78d, imm = a95fc452,  mem_data_read_in = baadd00d,  control_in = 0011001
#                  945ns:  OUTPUTS from ALU: aluout = 8f93db10, carry = 0, mem_write_en = 1, mem_data_write_out = 46dcb78d
